user_id;authority_name
1;ROLE_ADMIN
1;ROLE_USER
3;ROLE_ADMIN
3;ROLE_USER
4;ROLE_USER
5;ROLE_ADMIN
5;ROLE_USER
6;ROLE_USER
7;ROLE_USER
8;ROLE_USER
9;ROLE_USER
10;ROLE_USER
11;ROLE_USER
12;ROLE_USER
13;ROLE_USER
14;ROLE_USER
15;ROLE_USER
16;ROLE_USER
17;ROLE_USER
18;ROLE_USER
19;ROLE_USER
20;ROLE_USER
